681468
0::On:noise;Off:noise;
10382::On:noise;Off:;
11264::On:;Off:noise;
16369::On:noise;Off:;
33792::On:;Off:noise;
35677::On:noise;Off:;
51200::On:;Off:noise;
79966::On:noise;Off:;
163584::On:;Off:noise;
170257::On:noise;Off:;
202240::On:;Off:noise;
212170::On:noise;Off:;
233728::On:;Off:noise;
245135::On:noise;Off:;
272640::On:;Off:noise;
281035::On:noise;Off:;
304128::On:;Off:noise;
308979::On:noise;Off:;
321024::On:;Off:noise;
323376::On:noise;Off:;
329472::On:;Off:noise;
339653::On:noise;Off:;
340480::On:;Off:noise;
400487::On:noise;Off:;
401408::On:;Off:noise;
405921::On:noise;Off:;
406784::On:;Off:noise;
462805::On:noise;Off:;
471296::On:;Off:noise;
479342::On:noise;Off:;
492800::On:;Off:noise;
494386::On:noise;Off:;
600320::On:;Off:noise;
644327::On:noise;Off:;
645120::On:;Off:noise;
647316::On:noise;Off:;
648192::On:;Off:noise;
670798::On:noise;Off:;
671744::On:;Off:noise;
