724036
0::On:noise;Off:noise;
2687::On:noise;Off:;
39168::On:;Off:noise;
58290::On:noise;Off:;
59136::On:;Off:noise;
68688::On:noise;Off:;
69632::On:;Off:noise;
75382::On:noise;Off:;
292864::On:;Off:noise;
318846::On:noise;Off:;
541696::On:;Off:noise;
594101::On:noise;Off:;
594944::On:;Off:noise;
