240858
1225::On:trumpet;Off:;
10240::On:;Off:trumpet;
16717::On:trumpet;Off:;
59392::On:;Off:trumpet;
60567::On:trumpet;Off:;
78592::On:;Off:trumpet;
80117::On:trumpet;Off:;
89856::On:;Off:trumpet;
91619::On:trumpet;Off:;
205568::On:;Off:trumpet;
