423414
0::On:trumpet;Off:trumpet;
2935::On:trumpet;Off:;
21248::On:;Off:trumpet;
23615::On:trumpet;Off:;
39936::On:;Off:trumpet;
46527::On:trumpet;Off:;
118528::On:;Off:trumpet;
121742::On:trumpet;Off:;
130560::On:;Off:trumpet;
131613::On:trumpet;Off:;
132352::On:;Off:trumpet;
134267::On:trumpet;Off:;
143872::On:;Off:trumpet;
146409::On:trumpet;Off:;
156928::On:;Off:trumpet;
158410::On:trumpet;Off:;
171008::On:;Off:trumpet;
173357::On:trumpet;Off:;
197888::On:;Off:trumpet;
199853::On:trumpet;Off:;
229632::On:;Off:trumpet;
231984::On:trumpet;Off:;
271616::On:;Off:trumpet;
292043::On:trumpet;Off:;
292864::On:;Off:trumpet;
303916::On:trumpet;Off:;
364288::On:;Off:trumpet;
365490::On:trumpet;Off:;
366336::On:;Off:trumpet;
372580::On:trumpet;Off:;
377344::On:;Off:trumpet;
390220::On:trumpet;Off:;
391168::On:;Off:trumpet;
406335::On:trumpet;Off:;
407296::On:;Off:trumpet;
412362::On:trumpet;Off:;
413184::On:;Off:trumpet;
